Mouse_modeling
…
6/13/2018

Setup

This is a automatic report script. Users only need to place this Rmd to the same folder as you store mouse training data and knit. A html report will be generated.

You need to specify your go/nogo ratio below

goRatio = 0.50

Data structure

Mice from different days analyzed

## # A tibble: 24 x 3
## # Groups:   mouseID [3]
##    date       mouseID    day
##    <date>     <fct>    <dbl>
##  1 2017-11-30 Gi-3         1
##  2 2017-12-01 Gi-3         2
##  3 2017-12-02 Gi-3         3
##  4 2017-12-03 Gi-3         4
##  5 2017-12-05 Gi-3         5
##  6 2017-12-06 Gi-3         6
##  7 2017-12-07 Gi-3         7
##  8 2017-12-08 Gi-3         8
##  9 2017-11-11 JIMS1023     1
## 10 2017-11-12 JIMS1023     2
## # ... with 14 more rows
…
## # A tibble: 120 x 5
## # Groups:   mouseID, day [24]
##    B.type mouseID    day     n percent
##    <chr>  <fct>    <dbl> <int>   <dbl>
##  1 cr     Gi-3         1    35      15
##  2 cr     Gi-3         2    29      17
##  3 cr     Gi-3         3    45      22
##  4 cr     Gi-3         4   102      28
##  5 cr     Gi-3         5   104      28
##  6 cr     Gi-3         6   132      29
##  7 cr     Gi-3         7   112      31
##  8 cr     Gi-3         8   119      27
##  9 cr     JIMS1023     1    55      18
## 10 cr     JIMS1023     2   118      35
## # ... with 110 more rows
…
